<svg width="289" height="1" viewBox="0 0 289 1" fill="none" xmlns="http://www.w3.org/2000/svg">
<rect width="53" height="1" fill="#D6DCE1"/>
<rect x="59" width="53" height="1" fill="#D6DCE1"/>
<rect x="118" width="53" height="1" fill="#D6DCE1"/>
<rect x="177" width="53" height="1" fill="#D6DCE1"/>
<rect x="236" width="53" height="1" fill="#D6DCE1"/>
</svg>
